<svg width="15" height="9" viewBox="0 0 15 9" fill="none" xmlns="http://www.w3.org/2000/svg">
<path d="M7.50003 7.99979C7.26638 8.00024 7.03994 7.91887 6.86003 7.76979L0.860032 2.76979C0.655815 2.60005 0.527391 2.35614 0.503011 2.09171C0.478631 1.82728 0.560293 1.564 0.730032 1.35979C0.89977 1.15557 1.14368 1.02715 1.40811 1.00277C1.67253 0.978387 1.93581 1.06005 2.14003 1.22979L7.50003 5.70979L12.86 1.38979C12.9623 1.30672 13.08 1.24469 13.2064 1.20726C13.3327 1.16983 13.4652 1.15773 13.5962 1.17167C13.7272 1.18561 13.8542 1.22531 13.9699 1.28848C14.0855 1.35166 14.1875 1.43706 14.27 1.53979C14.3616 1.64261 14.431 1.76324 14.4738 1.89411C14.5166 2.02498 14.5319 2.16328 14.5187 2.30035C14.5056 2.43741 14.4643 2.57028 14.3974 2.69064C14.3305 2.811 14.2395 2.91624 14.13 2.99979L8.13003 7.82979C7.94495 7.9553 7.72313 8.01516 7.50003 7.99979Z" fill="#5172E5"/>
</svg>
