<svg width="8" height="15" viewBox="0 0 8 15" fill="none" xmlns="http://www.w3.org/2000/svg">
<path d="M6.83 14.5C6.68061 14.5005 6.533 14.4676 6.39802 14.4035C6.26304 14.3395 6.14412 14.2461 6.05 14.13L1.22 8.13003C1.07292 7.9511 0.992516 7.72666 0.992516 7.49503C0.992516 7.26341 1.07292 7.03896 1.22 6.86003L6.22 0.860032C6.38974 0.655815 6.63365 0.527391 6.89808 0.503011C7.16251 0.478631 7.42579 0.560293 7.63 0.730032C7.83422 0.89977 7.96264 1.14368 7.98702 1.40811C8.0114 1.67253 7.92974 1.93581 7.76 2.14003L3.29 7.50003L7.61 12.86C7.73229 13.0068 7.80996 13.1856 7.83384 13.3751C7.85772 13.5647 7.82681 13.7571 7.74475 13.9296C7.66269 14.1021 7.53293 14.2475 7.37082 14.3486C7.20871 14.4497 7.02104 14.5023 6.83 14.5Z" fill="#FEFAFD"/>
</svg>
