<svg width="32" height="32" viewBox="0 0 32 32" fill="none" xmlns="http://www.w3.org/2000/svg">
<circle cx="16" cy="16" r="16" fill="#FEFAFD"/>
<path d="M21 16.5L10 18.0249C9.22146 15.5595 8.29071 11.9929 7.5 9.52493L24 9C24.8 9 24.5 9.66667 24.5 10C24 12 23.4 13.3 23 14.5C22.6 15.7 21.5 16.3333 21 16.5Z" fill="#5172E5"/>
<path d="M22 25.0249C22 25.8533 21.3284 26.5249 20.5 26.5249C19.6716 26.5249 19 25.8533 19 25.0249C19 24.1964 19.6716 23.5249 20.5 23.5249C21.3284 23.5249 22 24.1964 22 25.0249Z" fill="#5172E5"/>
<path d="M12 25.0249C12 25.8533 11.3284 26.5249 10.5 26.5249C9.67157 26.5249 9 25.8533 9 25.0249C9 24.1964 9.67157 23.5249 10.5 23.5249C11.3284 23.5249 12 24.1964 12 25.0249Z" fill="#5172E5"/>
<path d="M4.29288 6.79291C3.90236 7.18344 3.90237 7.8166 4.29291 8.20712C4.68344 8.59764 5.3166 8.59763 5.70712 8.20709L4.29288 6.79291ZM6 6.49996L6.70712 7.20706L6.70712 7.20705L6 6.49996ZM7 7.01241L6.05132 7.32865L7 7.01241ZM21 16.5L21.1373 17.4905L21.2287 17.4779L21.3162 17.4487L21 16.5ZM24.5 10L25.4701 10.2425L25.5 10.1231V10H24.5ZM24 9V8H23.9841L23.9682 8.00051L24 9ZM22.5 22.0249C23.0523 22.0249 23.5 21.5772 23.5 21.0249C23.5 20.4726 23.0523 20.0249 22.5 20.0249V22.0249ZM6.70712 7.20705C6.79309 7.12108 6.78108 7.15896 6.68043 7.19653C6.61909 7.21943 6.52118 7.24336 6.39832 7.23481C6.27189 7.22601 6.16085 7.18565 6.07448 7.13365C5.92601 7.04427 5.89075 6.9461 5.92508 7.00957C5.95122 7.0579 5.99341 7.15494 6.05132 7.32865L7.94868 6.69617C7.87691 6.48087 7.79176 6.25683 7.68421 6.05802C7.58485 5.87433 7.40955 5.60293 7.10601 5.42018C6.739 5.19924 6.33113 5.19212 5.981 5.32282C5.6865 5.43275 5.45691 5.62883 5.29288 5.79287L6.70712 7.20705ZM10.1373 19.0155L21.1373 17.4905L20.8627 15.5095L9.86268 17.0344L10.1373 19.0155ZM21.3162 17.4487C21.9908 17.2238 23.414 16.4202 23.9487 14.8162L22.0513 14.1838C21.786 14.9798 21.0092 15.4428 20.6838 15.5513L21.3162 17.4487ZM23.9487 14.8162C24.3073 13.7404 24.9605 12.2811 25.4701 10.2425L23.5299 9.75746C23.0395 11.7188 22.4927 12.8596 22.0513 14.1838L23.9487 14.8162ZM25.5 10C25.5 10.0104 25.499 10.0218 25.5243 9.84455C25.5404 9.73209 25.5725 9.50247 25.5429 9.25585C25.5104 8.98539 25.3932 8.61167 25.0415 8.32945C24.7114 8.06455 24.3212 8 24 8V10C24.0788 10 23.9511 10.0188 23.7898 9.8893C23.7074 9.82319 23.6466 9.74152 23.6076 9.65997C23.5711 9.58365 23.5605 9.52212 23.5571 9.49415C23.5539 9.46693 23.5558 9.45697 23.5547 9.47371C23.5537 9.49015 23.551 9.516 23.5444 9.5617C23.5408 9.58685 23.5268 9.67869 23.52 9.73001C23.5117 9.79273 23.5 9.89151 23.5 10H25.5ZM6.05132 7.32865C6.04406 7.30688 6.05981 7.36544 6.09854 7.58904C6.13219 7.78331 6.16747 8.00345 6.21289 8.27189C6.29599 8.76304 6.40942 9.39848 6.54768 9.83004L8.45232 9.21982C8.36566 8.94935 8.27338 8.4614 8.18486 7.93824C8.14447 7.69952 8.10246 7.43978 8.0692 7.24772C8.04102 7.08501 8.00023 6.85082 7.94868 6.69617L6.05132 7.32865ZM6.54768 9.83004C6.93703 11.0453 7.36272 12.5371 7.79269 14.0494C8.22005 15.5525 8.65181 17.0765 9.04642 18.3261L10.9536 17.7238C10.5696 16.508 10.1468 15.016 9.71644 13.5024C9.28872 11.9981 8.85369 10.4726 8.45232 9.21982L6.54768 9.83004ZM23.9682 8.00051L7.4682 8.52544L7.5318 10.5244L24.0318 9.99949L23.9682 8.00051ZM9.55279 17.1305C9.25112 17.2813 9.03743 17.5352 8.90803 17.7186C8.75918 17.9294 8.62783 18.1821 8.53163 18.4557C8.34625 18.9829 8.24148 19.744 8.60557 20.4721L10.3944 19.5777C10.3585 19.5059 10.3371 19.3503 10.4184 19.1192C10.4555 19.0136 10.5033 18.9267 10.542 18.8719C10.561 18.845 10.5708 18.8357 10.567 18.8395C10.5647 18.8418 10.5553 18.8507 10.5384 18.8636C10.5221 18.8758 10.4918 18.8971 10.4472 18.9194L9.55279 17.1305ZM8.60557 20.4721C8.75696 20.7749 8.94406 21.0764 9.21069 21.329C9.49121 21.5948 9.81111 21.761 10.1628 21.8615C10.7698 22.0349 11.5729 22.0249 12.5 22.0249V20.0249C11.4271 20.0249 10.9802 20.015 10.7122 19.9384C10.6264 19.9139 10.6025 19.8926 10.5862 19.8771C10.5559 19.8484 10.493 19.7749 10.3944 19.5777L8.60557 20.4721ZM12.5 22.0249H22.5V20.0249H12.5V22.0249ZM21 25.0249C21 25.301 20.7761 25.5249 20.5 25.5249V27.5249C21.8807 27.5249 23 26.4056 23 25.0249H21ZM20.5 25.5249C20.2239 25.5249 20 25.301 20 25.0249H18C18 26.4056 19.1193 27.5249 20.5 27.5249V25.5249ZM20 25.0249C20 24.7487 20.2239 24.5249 20.5 24.5249V22.5249C19.1193 22.5249 18 23.6441 18 25.0249H20ZM20.5 24.5249C20.7761 24.5249 21 24.7487 21 25.0249H23C23 23.6441 21.8807 22.5249 20.5 22.5249V24.5249ZM11 25.0249C11 25.301 10.7761 25.5249 10.5 25.5249V27.5249C11.8807 27.5249 13 26.4056 13 25.0249H11ZM10.5 25.5249C10.2239 25.5249 10 25.301 10 25.0249H8C8 26.4056 9.11929 27.5249 10.5 27.5249V25.5249ZM10 25.0249C10 24.7487 10.2239 24.5249 10.5 24.5249V22.5249C9.11929 22.5249 8 23.6441 8 25.0249H10ZM10.5 24.5249C10.7761 24.5249 11 24.7487 11 25.0249H13C13 23.6441 11.8807 22.5249 10.5 22.5249V24.5249ZM5.70712 8.20709L6.70712 7.20706L5.29288 5.79287L4.29288 6.79291L5.70712 8.20709Z" fill="#011222"/>
</svg>
