<svg width="24" height="24" viewBox="0 0 24 24" fill="none" xmlns="http://www.w3.org/2000/svg">
<path d="M16.8921 8.96099C17.0002 8.86014 17.0873 8.73897 17.1486 8.60439C17.2099 8.46982 17.2441 8.32447 17.2493 8.17667C17.2545 8.02886 17.2305 7.88148 17.1788 7.74294C17.127 7.60441 17.0485 7.47743 16.9478 7.36925C16.847 7.26108 16.7259 7.17382 16.5914 7.11248C16.457 7.05113 16.3118 7.01689 16.1641 7.01172C16.0164 7.00654 15.8691 7.03053 15.7307 7.08231C15.5923 7.13409 15.4654 7.21265 15.3573 7.31351L12.065 10.3855L8.99543 7.08941C8.79005 6.87888 8.51049 6.75717 8.21657 6.75031C7.92265 6.74345 7.63772 6.85199 7.42275 7.05271C7.20779 7.25343 7.07985 7.53038 7.06633 7.8243C7.05281 8.11823 7.15477 8.40578 7.3504 8.62542L10.4199 11.9204L7.12648 14.9924C7.01458 15.0922 6.92373 15.2134 6.85928 15.3489C6.79484 15.4843 6.75809 15.6313 6.75119 15.7812C6.7443 15.9311 6.76739 16.0808 6.81913 16.2216C6.87087 16.3625 6.9502 16.4915 7.05247 16.6012C7.15473 16.7109 7.27787 16.799 7.41465 16.8605C7.55143 16.9219 7.69909 16.9553 7.84896 16.9588C7.99884 16.9623 8.14789 16.9358 8.28738 16.8808C8.42688 16.8259 8.55399 16.7436 8.66125 16.6387L11.9536 13.5679L15.0231 16.8628C15.1222 16.9769 15.2433 17.0698 15.379 17.1361C15.5148 17.2023 15.6625 17.2406 15.8133 17.2485C15.9642 17.2564 16.115 17.2338 16.257 17.1821C16.3989 17.1304 16.529 17.0506 16.6395 16.9476C16.7499 16.8445 16.8385 16.7202 16.9 16.5821C16.9615 16.444 16.9945 16.295 16.9972 16.1439C16.9999 15.9927 16.9721 15.8426 16.9156 15.7024C16.8591 15.5622 16.7749 15.4349 16.6682 15.328L13.5997 12.033L16.8921 8.96099Z" fill="#011222"/>
<path fill-rule="evenodd" clip-rule="evenodd" d="M0 12C0 5.37273 5.37273 0 12 0C18.6273 0 24 5.37273 24 12C24 18.6273 18.6273 24 12 24C5.37273 24 0 18.6273 0 12ZM12 21.8182C10.7107 21.8182 9.43394 21.5642 8.24274 21.0708C7.05155 20.5774 5.9692 19.8542 5.0575 18.9425C4.14579 18.0308 3.42259 16.9485 2.92918 15.7573C2.43577 14.5661 2.18182 13.2893 2.18182 12C2.18182 10.7107 2.43577 9.43394 2.92918 8.24274C3.42259 7.05155 4.14579 5.9692 5.0575 5.0575C5.9692 4.14579 7.05155 3.42259 8.24274 2.92918C9.43394 2.43577 10.7107 2.18182 12 2.18182C14.6039 2.18182 17.1012 3.21623 18.9425 5.0575C20.7838 6.89876 21.8182 9.39606 21.8182 12C21.8182 14.6039 20.7838 17.1012 18.9425 18.9425C17.1012 20.7838 14.6039 21.8182 12 21.8182Z" fill="#011222"/>
</svg>
