<svg width="59" height="20" viewBox="0 0 59 20" fill="none" xmlns="http://www.w3.org/2000/svg">
<path d="M3.46484 19H0.347656V5.94531H3.46484V19ZM0.21875 2.53516C0.21875 2.01953 0.367188 1.61328 0.664062 1.31641C0.96875 1.01172 1.39062 0.859375 1.92969 0.859375C2.4375 0.859375 2.84375 1.01172 3.14844 1.31641C3.45312 1.61328 3.60547 2.01953 3.60547 2.53516C3.60547 3.06641 3.44922 3.48047 3.13672 3.77734C2.82422 4.06641 2.42188 4.21094 1.92969 4.21094C1.41406 4.21094 1 4.06641 0.6875 3.77734C0.375 3.48047 0.21875 3.06641 0.21875 2.53516ZM11.5859 19H8.41016V4.66797H5.12891V1.86719H14.8672V4.66797H11.5859V19ZM25.3672 12.4492C25.3672 14.5898 24.9141 16.2578 24.0078 17.4531C23.1016 18.6406 21.8594 19.2344 20.2812 19.2344C19.2812 19.2344 18.3984 18.9609 17.6328 18.4141C16.8672 17.8672 16.2773 17.082 15.8633 16.0586C15.4492 15.0273 15.2422 13.8242 15.2422 12.4492C15.2422 10.332 15.6914 8.67969 16.5898 7.49219C17.4883 6.29688 18.7344 5.69922 20.3281 5.69922C21.8672 5.69922 23.0898 6.30859 23.9961 7.52734C24.9102 8.73828 25.3672 10.3789 25.3672 12.4492ZM18.4297 12.4492C18.4297 13.8086 18.5781 14.8359 18.875 15.5312C19.1719 16.2266 19.6484 16.5742 20.3047 16.5742C21.5547 16.5742 22.1797 15.1992 22.1797 12.4492C22.1797 11.082 22.0273 10.0625 21.7227 9.39062C21.4258 8.71094 20.9531 8.37109 20.3047 8.37109C19.6484 8.37109 19.1719 8.71094 18.875 9.39062C18.5781 10.0625 18.4297 11.082 18.4297 12.4492ZM34.6133 19L34.2266 17.3242H34.0625C33.7734 17.918 33.3594 18.3867 32.8203 18.7305C32.2891 19.0664 31.6797 19.2344 30.9922 19.2344C29.8203 19.2344 28.9336 18.8359 28.332 18.0391C27.7305 17.2422 27.4297 16.0508 27.4297 14.4648V5.94531H30.582V13.7148C30.582 14.668 30.6953 15.3867 30.9219 15.8711C31.1484 16.3555 31.5156 16.5977 32.0234 16.5977C32.6953 16.5977 33.1836 16.2617 33.4883 15.5898C33.8008 14.918 33.957 13.7891 33.957 12.2031V5.94531H37.1094V19H34.6133ZM44.0352 19.2344C42.4805 19.2344 41.2969 18.668 40.4844 17.5352C39.6719 16.4023 39.2656 14.7383 39.2656 12.543C39.2656 10.2461 39.6484 8.53125 40.4141 7.39844C41.1875 6.26562 42.3789 5.69922 43.9883 5.69922C44.4727 5.69922 44.9805 5.76953 45.5117 5.91016C46.043 6.05078 46.5195 6.25391 46.9414 6.51953L46.0508 8.94531C45.4023 8.5625 44.8281 8.37109 44.3281 8.37109C43.6641 8.37109 43.1836 8.71875 42.8867 9.41406C42.5977 10.1016 42.4531 11.1367 42.4531 12.5195C42.4531 13.8711 42.5977 14.8828 42.8867 15.5547C43.1758 16.2188 43.6484 16.5508 44.3047 16.5508C45.0859 16.5508 45.9023 16.2773 46.7539 15.7305V18.4727C45.9336 18.9805 45.0273 19.2344 44.0352 19.2344ZM55.1328 19V11.2188C55.1328 9.30469 54.6523 8.34766 53.6914 8.34766C52.9727 8.34766 52.4688 8.72656 52.1797 9.48438C51.8906 10.2344 51.7461 11.3164 51.7461 12.7305V19H48.6289V0.765625H51.7461V4.82031C51.7461 5.34375 51.6992 6.27734 51.6055 7.62109H51.7695C52.3945 6.33984 53.3555 5.69922 54.6523 5.69922C55.8477 5.69922 56.75 6.10547 57.3594 6.91797C57.9688 7.72266 58.2734 8.91016 58.2734 10.4805V19H55.1328Z" fill="#FEFAFD"/>
</svg>
