<svg width="24" height="25" viewBox="0 0 24 25" fill="none" xmlns="http://www.w3.org/2000/svg">
<path d="M12 6.5C13.1046 6.5 14 5.60457 14 4.5C14 3.39543 13.1046 2.5 12 2.5C10.8954 2.5 10 3.39543 10 4.5C10 5.60457 10.8954 6.5 12 6.5Z" fill="#FEFAFD"/>
<path d="M12 14.5C13.1046 14.5 14 13.6046 14 12.5C14 11.3954 13.1046 10.5 12 10.5C10.8954 10.5 10 11.3954 10 12.5C10 13.6046 10.8954 14.5 12 14.5Z" fill="#FEFAFD"/>
<path d="M12 22.5C13.1046 22.5 14 21.6046 14 20.5C14 19.3954 13.1046 18.5 12 18.5C10.8954 18.5 10 19.3954 10 20.5C10 21.6046 10.8954 22.5 12 22.5Z" fill="#FEFAFD"/>
</svg>
