<svg width="20" height="20" viewBox="0 0 20 20" fill="none" xmlns="http://www.w3.org/2000/svg">
<line x1="10" y1="4.37114e-08" x2="10" y2="20" stroke="#FEFAFD" stroke-width="2"/>
<line x1="20" y1="10" x2="-8.74228e-08" y2="10" stroke="#FEFAFD" stroke-width="2"/>
</svg>
